%YAML 1.1
%TAG !u! tag:unity3d.com,2011:
--- !u!1001 &100100000
Prefab:
  m_ObjectHideFlags: 1
  serializedVersion: 2
  m_Modification:
    m_TransformParent: {fileID: 0}
    m_Modifications: []
    m_RemovedComponents: []
  m_ParentPrefab: {fileID: 0}
  m_RootGameObject: {fileID: 1943437134729628}
  m_IsPrefabParent: 1
--- !u!1 &1943437134729628
GameObject:
  m_ObjectHideFlags: 0
  m_PrefabParentObject: {fileID: 0}
  m_PrefabInternal: {fileID: 100100000}
  serializedVersion: 5
  m_Component:
  - component: {fileID: 4239347543117686}
  - component: {fileID: 2569400267120043458}
  m_Layer: 31
  m_Name: Rock Palette
  m_TagString: Untagged
  m_Icon: {fileID: 0}
  m_NavMeshLayer: 0
  m_StaticEditorFlags: 0
  m_IsActive: 1
--- !u!1 &1955686542392770
GameObject:
  m_ObjectHideFlags: 0
  m_PrefabParentObject: {fileID: 0}
  m_PrefabInternal: {fileID: 100100000}
  serializedVersion: 5
  m_Component:
  - component: {fileID: 4928748300679360}
  - component: {fileID: 8195094280229082872}
  - component: {fileID: 3664157345825315642}
  m_Layer: 31
  m_Name: Layer1
  m_TagString: Untagged
  m_Icon: {fileID: 0}
  m_NavMeshLayer: 0
  m_StaticEditorFlags: 0
  m_IsActive: 1
--- !u!4 &4239347543117686
Transform:
  m_ObjectHideFlags: 1
  m_PrefabParentObject: {fileID: 0}
  m_PrefabInternal: {fileID: 100100000}
  m_GameObject: {fileID: 1943437134729628}
  m_LocalRotation: {x: 0, y: 0, z: 0, w: 1}
  m_LocalPosition: {x: 0, y: 0, z: 0}
  m_LocalScale: {x: 1, y: 1, z: 1}
  m_Children:
  - {fileID: 4928748300679360}
  m_Father: {fileID: 0}
  m_RootOrder: 0
  m_LocalEulerAnglesHint: {x: 0, y: 0, z: 0}
--- !u!4 &4928748300679360
Transform:
  m_ObjectHideFlags: 1
  m_PrefabParentObject: {fileID: 0}
  m_PrefabInternal: {fileID: 100100000}
  m_GameObject: {fileID: 1955686542392770}
  m_LocalRotation: {x: -0, y: -0, z: -0, w: 1}
  m_LocalPosition: {x: 0, y: 0, z: 0}
  m_LocalScale: {x: 1, y: 1, z: 1}
  m_Children: []
  m_Father: {fileID: 4239347543117686}
  m_RootOrder: 0
  m_LocalEulerAnglesHint: {x: 0, y: 0, z: 0}
--- !u!114 &114117303457261238
MonoBehaviour:
  m_ObjectHideFlags: 0
  m_PrefabParentObject: {fileID: 0}
  m_PrefabInternal: {fileID: 0}
  m_GameObject: {fileID: 0}
  m_Enabled: 1
  m_EditorHideFlags: 1
  m_Script: {fileID: 12395, guid: 0000000000000000e000000000000000, type: 0}
  m_Name: Palette Settings
  m_EditorClassIdentifier: 
  cellSizing: 0
--- !u!156049354 &2569400267120043458
Grid:
  m_ObjectHideFlags: 1
  m_PrefabParentObject: {fileID: 0}
  m_PrefabInternal: {fileID: 100100000}
  m_GameObject: {fileID: 1943437134729628}
  m_Enabled: 1
  m_CellSize: {x: 1, y: 1, z: 0}
  m_CellGap: {x: 0, y: 0, z: 0}
  m_CellLayout: 0
  m_CellSwizzle: 0
--- !u!483693784 &3664157345825315642
TilemapRenderer:
  m_ObjectHideFlags: 1
  m_PrefabParentObject: {fileID: 0}
  m_PrefabInternal: {fileID: 100100000}
  m_GameObject: {fileID: 1955686542392770}
  m_Enabled: 0
  m_CastShadows: 0
  m_ReceiveShadows: 0
  m_DynamicOccludee: 0
  m_MotionVectors: 1
  m_LightProbeUsage: 0
  m_ReflectionProbeUsage: 0
  m_Materials:
  - {fileID: 10754, guid: 0000000000000000f000000000000000, type: 0}
  m_StaticBatchInfo:
    firstSubMesh: 0
    subMeshCount: 0
  m_StaticBatchRoot: {fileID: 0}
  m_ProbeAnchor: {fileID: 0}
  m_LightProbeVolumeOverride: {fileID: 0}
  m_ScaleInLightmap: 1
  m_PreserveUVs: 0
  m_IgnoreNormalsForChartDetection: 0
  m_ImportantGI: 0
  m_StitchLightmapSeams: 0
  m_SelectedEditorRenderState: 0
  m_MinimumChartSize: 4
  m_AutoUVMaxDistance: 0.5
  m_AutoUVMaxAngle: 89
  m_LightmapParameters: {fileID: 0}
  m_SortingLayerID: 0
  m_SortingLayer: 0
  m_SortingOrder: 0
  m_ChunkSize: {x: 32, y: 32, z: 32}
  m_MaxChunkCount: 16
  m_MaxFrameAge: 16
  m_SortOrder: 0
  m_MaskInteraction: 0
--- !u!1839735485 &8195094280229082872
Tilemap:
  m_ObjectHideFlags: 1
  m_PrefabParentObject: {fileID: 0}
  m_PrefabInternal: {fileID: 100100000}
  m_GameObject: {fileID: 1955686542392770}
  m_Enabled: 1
  m_Tiles:
  - first: {x: -1, y: -10, z: 0}
    second:
      m_TileIndex: 105
      m_TileSpriteIndex: 105
      m_TileMatrixIndex: 0
      m_TileColorIndex: 0
      m_ObjectToInstantiate: {fileID: 0}
      m_TileFlags: 1
      m_ColliderType: 2
  - first: {x: 0, y: -10, z: 0}
    second:
      m_TileIndex: 106
      m_TileSpriteIndex: 106
      m_TileMatrixIndex: 0
      m_TileColorIndex: 0
      m_ObjectToInstantiate: {fileID: 0}
      m_TileFlags: 1
      m_ColliderType: 2
  - first: {x: 1, y: -10, z: 0}
    second:
      m_TileIndex: 107
      m_TileSpriteIndex: 107
      m_TileMatrixIndex: 0
      m_TileColorIndex: 0
      m_ObjectToInstantiate: {fileID: 0}
      m_TileFlags: 1
      m_ColliderType: 2
  - first: {x: 2, y: -10, z: 0}
    second:
      m_TileIndex: 108
      m_TileSpriteIndex: 108
      m_TileMatrixIndex: 0
      m_TileColorIndex: 0
      m_ObjectToInstantiate: {fileID: 0}
      m_TileFlags: 1
      m_ColliderType: 2
  - first: {x: 3, y: -10, z: 0}
    second:
      m_TileIndex: 109
      m_TileSpriteIndex: 109
      m_TileMatrixIndex: 0
      m_TileColorIndex: 0
      m_ObjectToInstantiate: {fileID: 0}
      m_TileFlags: 1
      m_ColliderType: 2
  - first: {x: 4, y: -10, z: 0}
    second:
      m_TileIndex: 110
      m_TileSpriteIndex: 110
      m_TileMatrixIndex: 0
      m_TileColorIndex: 0
      m_ObjectToInstantiate: {fileID: 0}
      m_TileFlags: 1
      m_ColliderType: 2
  - first: {x: 5, y: -10, z: 0}
    second:
      m_TileIndex: 111
      m_TileSpriteIndex: 111
      m_TileMatrixIndex: 0
      m_TileColorIndex: 0
      m_ObjectToInstantiate: {fileID: 0}
      m_TileFlags: 1
      m_ColliderType: 2
  - first: {x: 6, y: -10, z: 0}
    second:
      m_TileIndex: 112
      m_TileSpriteIndex: 112
      m_TileMatrixIndex: 0
      m_TileColorIndex: 0
      m_ObjectToInstantiate: {fileID: 0}
      m_TileFlags: 1
      m_ColliderType: 2
  - first: {x: -1, y: -9, z: 0}
    second:
      m_TileIndex: 96
      m_TileSpriteIndex: 96
      m_TileMatrixIndex: 0
      m_TileColorIndex: 0
      m_ObjectToInstantiate: {fileID: 0}
      m_TileFlags: 1
      m_ColliderType: 2
  - first: {x: 0, y: -9, z: 0}
    second:
      m_TileIndex: 97
      m_TileSpriteIndex: 97
      m_TileMatrixIndex: 0
      m_TileColorIndex: 0
      m_ObjectToInstantiate: {fileID: 0}
      m_TileFlags: 1
      m_ColliderType: 2
  - first: {x: 1, y: -9, z: 0}
    second:
      m_TileIndex: 98
      m_TileSpriteIndex: 98
      m_TileMatrixIndex: 0
      m_TileColorIndex: 0
      m_ObjectToInstantiate: {fileID: 0}
      m_TileFlags: 1
      m_ColliderType: 2
  - first: {x: 2, y: -9, z: 0}
    second:
      m_TileIndex: 99
      m_TileSpriteIndex: 99
      m_TileMatrixIndex: 0
      m_TileColorIndex: 0
      m_ObjectToInstantiate: {fileID: 0}
      m_TileFlags: 1
      m_ColliderType: 2
  - first: {x: 3, y: -9, z: 0}
    second:
      m_TileIndex: 100
      m_TileSpriteIndex: 100
      m_TileMatrixIndex: 0
      m_TileColorIndex: 0
      m_ObjectToInstantiate: {fileID: 0}
      m_TileFlags: 1
      m_ColliderType: 2
  - first: {x: 4, y: -9, z: 0}
    second:
      m_TileIndex: 101
      m_TileSpriteIndex: 101
      m_TileMatrixIndex: 0
      m_TileColorIndex: 0
      m_ObjectToInstantiate: {fileID: 0}
      m_TileFlags: 1
      m_ColliderType: 2
  - first: {x: 5, y: -9, z: 0}
    second:
      m_TileIndex: 102
      m_TileSpriteIndex: 102
      m_TileMatrixIndex: 0
      m_TileColorIndex: 0
      m_ObjectToInstantiate: {fileID: 0}
      m_TileFlags: 1
      m_ColliderType: 2
  - first: {x: 6, y: -9, z: 0}
    second:
      m_TileIndex: 103
      m_TileSpriteIndex: 103
      m_TileMatrixIndex: 0
      m_TileColorIndex: 0
      m_ObjectToInstantiate: {fileID: 0}
      m_TileFlags: 1
      m_ColliderType: 2
  - first: {x: 7, y: -9, z: 0}
    second:
      m_TileIndex: 104
      m_TileSpriteIndex: 104
      m_TileMatrixIndex: 0
      m_TileColorIndex: 0
      m_ObjectToInstantiate: {fileID: 0}
      m_TileFlags: 1
      m_ColliderType: 2
  - first: {x: -1, y: -8, z: 0}
    second:
      m_TileIndex: 86
      m_TileSpriteIndex: 86
      m_TileMatrixIndex: 0
      m_TileColorIndex: 0
      m_ObjectToInstantiate: {fileID: 0}
      m_TileFlags: 1
      m_ColliderType: 2
  - first: {x: 0, y: -8, z: 0}
    second:
      m_TileIndex: 87
      m_TileSpriteIndex: 87
      m_TileMatrixIndex: 0
      m_TileColorIndex: 0
      m_ObjectToInstantiate: {fileID: 0}
      m_TileFlags: 1
      m_ColliderType: 2
  - first: {x: 1, y: -8, z: 0}
    second:
      m_TileIndex: 88
      m_TileSpriteIndex: 88
      m_TileMatrixIndex: 0
      m_TileColorIndex: 0
      m_ObjectToInstantiate: {fileID: 0}
      m_TileFlags: 1
      m_ColliderType: 2
  - first: {x: 2, y: -8, z: 0}
    second:
      m_TileIndex: 89
      m_TileSpriteIndex: 89
      m_TileMatrixIndex: 0
      m_TileColorIndex: 0
      m_ObjectToInstantiate: {fileID: 0}
      m_TileFlags: 1
      m_ColliderType: 2
  - first: {x: 3, y: -8, z: 0}
    second:
      m_TileIndex: 90
      m_TileSpriteIndex: 90
      m_TileMatrixIndex: 0
      m_TileColorIndex: 0
      m_ObjectToInstantiate: {fileID: 0}
      m_TileFlags: 1
      m_ColliderType: 2
  - first: {x: 4, y: -8, z: 0}
    second:
      m_TileIndex: 91
      m_TileSpriteIndex: 91
      m_TileMatrixIndex: 0
      m_TileColorIndex: 0
      m_ObjectToInstantiate: {fileID: 0}
      m_TileFlags: 1
      m_ColliderType: 2
  - first: {x: 5, y: -8, z: 0}
    second:
      m_TileIndex: 92
      m_TileSpriteIndex: 92
      m_TileMatrixIndex: 0
      m_TileColorIndex: 0
      m_ObjectToInstantiate: {fileID: 0}
      m_TileFlags: 1
      m_ColliderType: 2
  - first: {x: 6, y: -8, z: 0}
    second:
      m_TileIndex: 93
      m_TileSpriteIndex: 93
      m_TileMatrixIndex: 0
      m_TileColorIndex: 0
      m_ObjectToInstantiate: {fileID: 0}
      m_TileFlags: 1
      m_ColliderType: 2
  - first: {x: 7, y: -8, z: 0}
    second:
      m_TileIndex: 94
      m_TileSpriteIndex: 94
      m_TileMatrixIndex: 0
      m_TileColorIndex: 0
      m_ObjectToInstantiate: {fileID: 0}
      m_TileFlags: 1
      m_ColliderType: 2
  - first: {x: 8, y: -8, z: 0}
    second:
      m_TileIndex: 95
      m_TileSpriteIndex: 95
      m_TileMatrixIndex: 0
      m_TileColorIndex: 0
      m_ObjectToInstantiate: {fileID: 0}
      m_TileFlags: 1
      m_ColliderType: 2
  - first: {x: -1, y: -7, z: 0}
    second:
      m_TileIndex: 75
      m_TileSpriteIndex: 75
      m_TileMatrixIndex: 0
      m_TileColorIndex: 0
      m_ObjectToInstantiate: {fileID: 0}
      m_TileFlags: 1
      m_ColliderType: 2
  - first: {x: 0, y: -7, z: 0}
    second:
      m_TileIndex: 76
      m_TileSpriteIndex: 76
      m_TileMatrixIndex: 0
      m_TileColorIndex: 0
      m_ObjectToInstantiate: {fileID: 0}
      m_TileFlags: 1
      m_ColliderType: 2
  - first: {x: 1, y: -7, z: 0}
    second:
      m_TileIndex: 77
      m_TileSpriteIndex: 77
      m_TileMatrixIndex: 0
      m_TileColorIndex: 0
      m_ObjectToInstantiate: {fileID: 0}
      m_TileFlags: 1
      m_ColliderType: 2
  - first: {x: 2, y: -7, z: 0}
    second:
      m_TileIndex: 78
      m_TileSpriteIndex: 78
      m_TileMatrixIndex: 0
      m_TileColorIndex: 0
      m_ObjectToInstantiate: {fileID: 0}
      m_TileFlags: 1
      m_ColliderType: 2
  - first: {x: 3, y: -7, z: 0}
    second:
      m_TileIndex: 79
      m_TileSpriteIndex: 79
      m_TileMatrixIndex: 0
      m_TileColorIndex: 0
      m_ObjectToInstantiate: {fileID: 0}
      m_TileFlags: 1
      m_ColliderType: 2
  - first: {x: 4, y: -7, z: 0}
    second:
      m_TileIndex: 80
      m_TileSpriteIndex: 80
      m_TileMatrixIndex: 0
      m_TileColorIndex: 0
      m_ObjectToInstantiate: {fileID: 0}
      m_TileFlags: 1
      m_ColliderType: 2
  - first: {x: 5, y: -7, z: 0}
    second:
      m_TileIndex: 81
      m_TileSpriteIndex: 81
      m_TileMatrixIndex: 0
      m_TileColorIndex: 0
      m_ObjectToInstantiate: {fileID: 0}
      m_TileFlags: 1
      m_ColliderType: 2
  - first: {x: 6, y: -7, z: 0}
    second:
      m_TileIndex: 82
      m_TileSpriteIndex: 82
      m_TileMatrixIndex: 0
      m_TileColorIndex: 0
      m_ObjectToInstantiate: {fileID: 0}
      m_TileFlags: 1
      m_ColliderType: 2
  - first: {x: 7, y: -7, z: 0}
    second:
      m_TileIndex: 83
      m_TileSpriteIndex: 83
      m_TileMatrixIndex: 0
      m_TileColorIndex: 0
      m_ObjectToInstantiate: {fileID: 0}
      m_TileFlags: 1
      m_ColliderType: 2
  - first: {x: 8, y: -7, z: 0}
    second:
      m_TileIndex: 84
      m_TileSpriteIndex: 84
      m_TileMatrixIndex: 0
      m_TileColorIndex: 0
      m_ObjectToInstantiate: {fileID: 0}
      m_TileFlags: 1
      m_ColliderType: 2
  - first: {x: 9, y: -7, z: 0}
    second:
      m_TileIndex: 85
      m_TileSpriteIndex: 85
      m_TileMatrixIndex: 0
      m_TileColorIndex: 0
      m_ObjectToInstantiate: {fileID: 0}
      m_TileFlags: 1
      m_ColliderType: 2
  - first: {x: -1, y: -6, z: 0}
    second:
      m_TileIndex: 64
      m_TileSpriteIndex: 64
      m_TileMatrixIndex: 0
      m_TileColorIndex: 0
      m_ObjectToInstantiate: {fileID: 0}
      m_TileFlags: 1
      m_ColliderType: 2
  - first: {x: 0, y: -6, z: 0}
    second:
      m_TileIndex: 65
      m_TileSpriteIndex: 65
      m_TileMatrixIndex: 0
      m_TileColorIndex: 0
      m_ObjectToInstantiate: {fileID: 0}
      m_TileFlags: 1
      m_ColliderType: 2
  - first: {x: 1, y: -6, z: 0}
    second:
      m_TileIndex: 66
      m_TileSpriteIndex: 66
      m_TileMatrixIndex: 0
      m_TileColorIndex: 0
      m_ObjectToInstantiate: {fileID: 0}
      m_TileFlags: 1
      m_ColliderType: 2
  - first: {x: 2, y: -6, z: 0}
    second:
      m_TileIndex: 67
      m_TileSpriteIndex: 67
      m_TileMatrixIndex: 0
      m_TileColorIndex: 0
      m_ObjectToInstantiate: {fileID: 0}
      m_TileFlags: 1
      m_ColliderType: 2
  - first: {x: 3, y: -6, z: 0}
    second:
      m_TileIndex: 68
      m_TileSpriteIndex: 68
      m_TileMatrixIndex: 0
      m_TileColorIndex: 0
      m_ObjectToInstantiate: {fileID: 0}
      m_TileFlags: 1
      m_ColliderType: 2
  - first: {x: 4, y: -6, z: 0}
    second:
      m_TileIndex: 69
      m_TileSpriteIndex: 69
      m_TileMatrixIndex: 0
      m_TileColorIndex: 0
      m_ObjectToInstantiate: {fileID: 0}
      m_TileFlags: 1
      m_ColliderType: 2
  - first: {x: 5, y: -6, z: 0}
    second:
      m_TileIndex: 70
      m_TileSpriteIndex: 70
      m_TileMatrixIndex: 0
      m_TileColorIndex: 0
      m_ObjectToInstantiate: {fileID: 0}
      m_TileFlags: 1
      m_ColliderType: 2
  - first: {x: 6, y: -6, z: 0}
    second:
      m_TileIndex: 71
      m_TileSpriteIndex: 71
      m_TileMatrixIndex: 0
      m_TileColorIndex: 0
      m_ObjectToInstantiate: {fileID: 0}
      m_TileFlags: 1
      m_ColliderType: 2
  - first: {x: 7, y: -6, z: 0}
    second:
      m_TileIndex: 72
      m_TileSpriteIndex: 72
      m_TileMatrixIndex: 0
      m_TileColorIndex: 0
      m_ObjectToInstantiate: {fileID: 0}
      m_TileFlags: 1
      m_ColliderType: 2
  - first: {x: 8, y: -6, z: 0}
    second:
      m_TileIndex: 73
      m_TileSpriteIndex: 73
      m_TileMatrixIndex: 0
      m_TileColorIndex: 0
      m_ObjectToInstantiate: {fileID: 0}
      m_TileFlags: 1
      m_ColliderType: 2
  - first: {x: 9, y: -6, z: 0}
    second:
      m_TileIndex: 74
      m_TileSpriteIndex: 74
      m_TileMatrixIndex: 0
      m_TileColorIndex: 0
      m_ObjectToInstantiate: {fileID: 0}
      m_TileFlags: 1
      m_ColliderType: 2
  - first: {x: -1, y: -5, z: 0}
    second:
      m_TileIndex: 54
      m_TileSpriteIndex: 54
      m_TileMatrixIndex: 0
      m_TileColorIndex: 0
      m_ObjectToInstantiate: {fileID: 0}
      m_TileFlags: 1
      m_ColliderType: 2
  - first: {x: 0, y: -5, z: 0}
    second:
      m_TileIndex: 55
      m_TileSpriteIndex: 55
      m_TileMatrixIndex: 0
      m_TileColorIndex: 0
      m_ObjectToInstantiate: {fileID: 0}
      m_TileFlags: 1
      m_ColliderType: 2
  - first: {x: 1, y: -5, z: 0}
    second:
      m_TileIndex: 56
      m_TileSpriteIndex: 56
      m_TileMatrixIndex: 0
      m_TileColorIndex: 0
      m_ObjectToInstantiate: {fileID: 0}
      m_TileFlags: 1
      m_ColliderType: 2
  - first: {x: 2, y: -5, z: 0}
    second:
      m_TileIndex: 57
      m_TileSpriteIndex: 57
      m_TileMatrixIndex: 0
      m_TileColorIndex: 0
      m_ObjectToInstantiate: {fileID: 0}
      m_TileFlags: 1
      m_ColliderType: 2
  - first: {x: 3, y: -5, z: 0}
    second:
      m_TileIndex: 58
      m_TileSpriteIndex: 58
      m_TileMatrixIndex: 0
      m_TileColorIndex: 0
      m_ObjectToInstantiate: {fileID: 0}
      m_TileFlags: 1
      m_ColliderType: 2
  - first: {x: 4, y: -5, z: 0}
    second:
      m_TileIndex: 59
      m_TileSpriteIndex: 59
      m_TileMatrixIndex: 0
      m_TileColorIndex: 0
      m_ObjectToInstantiate: {fileID: 0}
      m_TileFlags: 1
      m_ColliderType: 2
  - first: {x: 5, y: -5, z: 0}
    second:
      m_TileIndex: 60
      m_TileSpriteIndex: 60
      m_TileMatrixIndex: 0
      m_TileColorIndex: 0
      m_ObjectToInstantiate: {fileID: 0}
      m_TileFlags: 1
      m_ColliderType: 2
  - first: {x: 6, y: -5, z: 0}
    second:
      m_TileIndex: 61
      m_TileSpriteIndex: 61
      m_TileMatrixIndex: 0
      m_TileColorIndex: 0
      m_ObjectToInstantiate: {fileID: 0}
      m_TileFlags: 1
      m_ColliderType: 2
  - first: {x: 7, y: -5, z: 0}
    second:
      m_TileIndex: 62
      m_TileSpriteIndex: 62
      m_TileMatrixIndex: 0
      m_TileColorIndex: 0
      m_ObjectToInstantiate: {fileID: 0}
      m_TileFlags: 1
      m_ColliderType: 2
  - first: {x: 8, y: -5, z: 0}
    second:
      m_TileIndex: 63
      m_TileSpriteIndex: 63
      m_TileMatrixIndex: 0
      m_TileColorIndex: 0
      m_ObjectToInstantiate: {fileID: 0}
      m_TileFlags: 1
      m_ColliderType: 2
  - first: {x: 9, y: -5, z: 0}
    second:
      m_TileIndex: 113
      m_TileSpriteIndex: 113
      m_TileMatrixIndex: 0
      m_TileColorIndex: 1
      m_ObjectToInstantiate: {fileID: 0}
      m_TileFlags: 3
      m_ColliderType: 1
  - first: {x: -1, y: -4, z: 0}
    second:
      m_TileIndex: 44
      m_TileSpriteIndex: 44
      m_TileMatrixIndex: 0
      m_TileColorIndex: 0
      m_ObjectToInstantiate: {fileID: 0}
      m_TileFlags: 1
      m_ColliderType: 2
  - first: {x: 0, y: -4, z: 0}
    second:
      m_TileIndex: 45
      m_TileSpriteIndex: 45
      m_TileMatrixIndex: 0
      m_TileColorIndex: 0
      m_ObjectToInstantiate: {fileID: 0}
      m_TileFlags: 1
      m_ColliderType: 2
  - first: {x: 1, y: -4, z: 0}
    second:
      m_TileIndex: 46
      m_TileSpriteIndex: 46
      m_TileMatrixIndex: 0
      m_TileColorIndex: 0
      m_ObjectToInstantiate: {fileID: 0}
      m_TileFlags: 1
      m_ColliderType: 2
  - first: {x: 2, y: -4, z: 0}
    second:
      m_TileIndex: 47
      m_TileSpriteIndex: 47
      m_TileMatrixIndex: 0
      m_TileColorIndex: 0
      m_ObjectToInstantiate: {fileID: 0}
      m_TileFlags: 1
      m_ColliderType: 2
  - first: {x: 3, y: -4, z: 0}
    second:
      m_TileIndex: 48
      m_TileSpriteIndex: 48
      m_TileMatrixIndex: 0
      m_TileColorIndex: 0
      m_ObjectToInstantiate: {fileID: 0}
      m_TileFlags: 1
      m_ColliderType: 2
  - first: {x: 4, y: -4, z: 0}
    second:
      m_TileIndex: 49
      m_TileSpriteIndex: 49
      m_TileMatrixIndex: 0
      m_TileColorIndex: 0
      m_ObjectToInstantiate: {fileID: 0}
      m_TileFlags: 1
      m_ColliderType: 2
  - first: {x: 5, y: -4, z: 0}
    second:
      m_TileIndex: 50
      m_TileSpriteIndex: 50
      m_TileMatrixIndex: 0
      m_TileColorIndex: 0
      m_ObjectToInstantiate: {fileID: 0}
      m_TileFlags: 1
      m_ColliderType: 2
  - first: {x: 6, y: -4, z: 0}
    second:
      m_TileIndex: 51
      m_TileSpriteIndex: 51
      m_TileMatrixIndex: 0
      m_TileColorIndex: 0
      m_ObjectToInstantiate: {fileID: 0}
      m_TileFlags: 1
      m_ColliderType: 2
  - first: {x: 7, y: -4, z: 0}
    second:
      m_TileIndex: 52
      m_TileSpriteIndex: 52
      m_TileMatrixIndex: 0
      m_TileColorIndex: 0
      m_ObjectToInstantiate: {fileID: 0}
      m_TileFlags: 1
      m_ColliderType: 2
  - first: {x: 8, y: -4, z: 0}
    second:
      m_TileIndex: 53
      m_TileSpriteIndex: 53
      m_TileMatrixIndex: 0
      m_TileColorIndex: 0
      m_ObjectToInstantiate: {fileID: 0}
      m_TileFlags: 1
      m_ColliderType: 2
  - first: {x: 21, y: -4, z: 0}
    second:
      m_TileIndex: 114
      m_TileSpriteIndex: 76
      m_TileMatrixIndex: 0
      m_TileColorIndex: 0
      m_ObjectToInstantiate: {fileID: 0}
      m_TileFlags: 2
      m_ColliderType: 2
  - first: {x: -1, y: -3, z: 0}
    second:
      m_TileIndex: 33
      m_TileSpriteIndex: 33
      m_TileMatrixIndex: 0
      m_TileColorIndex: 0
      m_ObjectToInstantiate: {fileID: 0}
      m_TileFlags: 1
      m_ColliderType: 2
  - first: {x: 0, y: -3, z: 0}
    second:
      m_TileIndex: 34
      m_TileSpriteIndex: 34
      m_TileMatrixIndex: 0
      m_TileColorIndex: 0
      m_ObjectToInstantiate: {fileID: 0}
      m_TileFlags: 1
      m_ColliderType: 2
  - first: {x: 1, y: -3, z: 0}
    second:
      m_TileIndex: 35
      m_TileSpriteIndex: 35
      m_TileMatrixIndex: 0
      m_TileColorIndex: 0
      m_ObjectToInstantiate: {fileID: 0}
      m_TileFlags: 1
      m_ColliderType: 2
  - first: {x: 2, y: -3, z: 0}
    second:
      m_TileIndex: 36
      m_TileSpriteIndex: 36
      m_TileMatrixIndex: 0
      m_TileColorIndex: 0
      m_ObjectToInstantiate: {fileID: 0}
      m_TileFlags: 1
      m_ColliderType: 2
  - first: {x: 3, y: -3, z: 0}
    second:
      m_TileIndex: 37
      m_TileSpriteIndex: 37
      m_TileMatrixIndex: 0
      m_TileColorIndex: 0
      m_ObjectToInstantiate: {fileID: 0}
      m_TileFlags: 1
      m_ColliderType: 2
  - first: {x: 4, y: -3, z: 0}
    second:
      m_TileIndex: 38
      m_TileSpriteIndex: 38
      m_TileMatrixIndex: 0
      m_TileColorIndex: 0
      m_ObjectToInstantiate: {fileID: 0}
      m_TileFlags: 1
      m_ColliderType: 2
  - first: {x: 5, y: -3, z: 0}
    second:
      m_TileIndex: 39
      m_TileSpriteIndex: 39
      m_TileMatrixIndex: 0
      m_TileColorIndex: 0
      m_ObjectToInstantiate: {fileID: 0}
      m_TileFlags: 1
      m_ColliderType: 2
  - first: {x: 6, y: -3, z: 0}
    second:
      m_TileIndex: 40
      m_TileSpriteIndex: 40
      m_TileMatrixIndex: 0
      m_TileColorIndex: 0
      m_ObjectToInstantiate: {fileID: 0}
      m_TileFlags: 1
      m_ColliderType: 2
  - first: {x: 7, y: -3, z: 0}
    second:
      m_TileIndex: 41
      m_TileSpriteIndex: 41
      m_TileMatrixIndex: 0
      m_TileColorIndex: 0
      m_ObjectToInstantiate: {fileID: 0}
      m_TileFlags: 1
      m_ColliderType: 2
  - first: {x: 8, y: -3, z: 0}
    second:
      m_TileIndex: 42
      m_TileSpriteIndex: 42
      m_TileMatrixIndex: 0
      m_TileColorIndex: 0
      m_ObjectToInstantiate: {fileID: 0}
      m_TileFlags: 1
      m_ColliderType: 2
  - first: {x: 9, y: -3, z: 0}
    second:
      m_TileIndex: 43
      m_TileSpriteIndex: 43
      m_TileMatrixIndex: 0
      m_TileColorIndex: 0
      m_ObjectToInstantiate: {fileID: 0}
      m_TileFlags: 1
      m_ColliderType: 2
  - first: {x: -1, y: -2, z: 0}
    second:
      m_TileIndex: 22
      m_TileSpriteIndex: 22
      m_TileMatrixIndex: 0
      m_TileColorIndex: 0
      m_ObjectToInstantiate: {fileID: 0}
      m_TileFlags: 1
      m_ColliderType: 2
  - first: {x: 0, y: -2, z: 0}
    second:
      m_TileIndex: 23
      m_TileSpriteIndex: 23
      m_TileMatrixIndex: 0
      m_TileColorIndex: 0
      m_ObjectToInstantiate: {fileID: 0}
      m_TileFlags: 1
      m_ColliderType: 2
  - first: {x: 1, y: -2, z: 0}
    second:
      m_TileIndex: 24
      m_TileSpriteIndex: 24
      m_TileMatrixIndex: 0
      m_TileColorIndex: 0
      m_ObjectToInstantiate: {fileID: 0}
      m_TileFlags: 1
      m_ColliderType: 2
  - first: {x: 2, y: -2, z: 0}
    second:
      m_TileIndex: 25
      m_TileSpriteIndex: 25
      m_TileMatrixIndex: 0
      m_TileColorIndex: 0
      m_ObjectToInstantiate: {fileID: 0}
      m_TileFlags: 1
      m_ColliderType: 2
  - first: {x: 3, y: -2, z: 0}
    second:
      m_TileIndex: 26
      m_TileSpriteIndex: 26
      m_TileMatrixIndex: 0
      m_TileColorIndex: 0
      m_ObjectToInstantiate: {fileID: 0}
      m_TileFlags: 1
      m_ColliderType: 2
  - first: {x: 4, y: -2, z: 0}
    second:
      m_TileIndex: 27
      m_TileSpriteIndex: 27
      m_TileMatrixIndex: 0
      m_TileColorIndex: 0
      m_ObjectToInstantiate: {fileID: 0}
      m_TileFlags: 1
      m_ColliderType: 2
  - first: {x: 5, y: -2, z: 0}
    second:
      m_TileIndex: 28
      m_TileSpriteIndex: 28
      m_TileMatrixIndex: 0
      m_TileColorIndex: 0
      m_ObjectToInstantiate: {fileID: 0}
      m_TileFlags: 1
      m_ColliderType: 2
  - first: {x: 6, y: -2, z: 0}
    second:
      m_TileIndex: 29
      m_TileSpriteIndex: 29
      m_TileMatrixIndex: 0
      m_TileColorIndex: 0
      m_ObjectToInstantiate: {fileID: 0}
      m_TileFlags: 1
      m_ColliderType: 2
  - first: {x: 7, y: -2, z: 0}
    second:
      m_TileIndex: 30
      m_TileSpriteIndex: 30
      m_TileMatrixIndex: 0
      m_TileColorIndex: 0
      m_ObjectToInstantiate: {fileID: 0}
      m_TileFlags: 1
      m_ColliderType: 2
  - first: {x: 8, y: -2, z: 0}
    second:
      m_TileIndex: 31
      m_TileSpriteIndex: 31
      m_TileMatrixIndex: 0
      m_TileColorIndex: 0
      m_ObjectToInstantiate: {fileID: 0}
      m_TileFlags: 1
      m_ColliderType: 2
  - first: {x: 9, y: -2, z: 0}
    second:
      m_TileIndex: 32
      m_TileSpriteIndex: 32
      m_TileMatrixIndex: 0
      m_TileColorIndex: 0
      m_ObjectToInstantiate: {fileID: 0}
      m_TileFlags: 1
      m_ColliderType: 2
  - first: {x: -1, y: -1, z: 0}
    second:
      m_TileIndex: 11
      m_TileSpriteIndex: 11
      m_TileMatrixIndex: 0
      m_TileColorIndex: 0
      m_ObjectToInstantiate: {fileID: 0}
      m_TileFlags: 1
      m_ColliderType: 2
  - first: {x: 0, y: -1, z: 0}
    second:
      m_TileIndex: 12
      m_TileSpriteIndex: 12
      m_TileMatrixIndex: 0
      m_TileColorIndex: 0
      m_ObjectToInstantiate: {fileID: 0}
      m_TileFlags: 1
      m_ColliderType: 2
  - first: {x: 1, y: -1, z: 0}
    second:
      m_TileIndex: 13
      m_TileSpriteIndex: 13
      m_TileMatrixIndex: 0
      m_TileColorIndex: 0
      m_ObjectToInstantiate: {fileID: 0}
      m_TileFlags: 1
      m_ColliderType: 2
  - first: {x: 2, y: -1, z: 0}
    second:
      m_TileIndex: 14
      m_TileSpriteIndex: 14
      m_TileMatrixIndex: 0
      m_TileColorIndex: 0
      m_ObjectToInstantiate: {fileID: 0}
      m_TileFlags: 1
      m_ColliderType: 2
  - first: {x: 3, y: -1, z: 0}
    second:
      m_TileIndex: 15
      m_TileSpriteIndex: 15
      m_TileMatrixIndex: 0
      m_TileColorIndex: 0
      m_ObjectToInstantiate: {fileID: 0}
      m_TileFlags: 1
      m_ColliderType: 2
  - first: {x: 4, y: -1, z: 0}
    second:
      m_TileIndex: 16
      m_TileSpriteIndex: 16
      m_TileMatrixIndex: 0
      m_TileColorIndex: 0
      m_ObjectToInstantiate: {fileID: 0}
      m_TileFlags: 1
      m_ColliderType: 2
  - first: {x: 5, y: -1, z: 0}
    second:
      m_TileIndex: 17
      m_TileSpriteIndex: 17
      m_TileMatrixIndex: 0
      m_TileColorIndex: 0
      m_ObjectToInstantiate: {fileID: 0}
      m_TileFlags: 1
      m_ColliderType: 2
  - first: {x: 6, y: -1, z: 0}
    second:
      m_TileIndex: 18
      m_TileSpriteIndex: 18
      m_TileMatrixIndex: 0
      m_TileColorIndex: 0
      m_ObjectToInstantiate: {fileID: 0}
      m_TileFlags: 1
      m_ColliderType: 2
  - first: {x: 7, y: -1, z: 0}
    second:
      m_TileIndex: 19
      m_TileSpriteIndex: 19
      m_TileMatrixIndex: 0
      m_TileColorIndex: 0
      m_ObjectToInstantiate: {fileID: 0}
      m_TileFlags: 1
      m_ColliderType: 2
  - first: {x: 8, y: -1, z: 0}
    second:
      m_TileIndex: 20
      m_TileSpriteIndex: 20
      m_TileMatrixIndex: 0
      m_TileColorIndex: 0
      m_ObjectToInstantiate: {fileID: 0}
      m_TileFlags: 1
      m_ColliderType: 2
  - first: {x: 9, y: -1, z: 0}
    second:
      m_TileIndex: 21
      m_TileSpriteIndex: 21
      m_TileMatrixIndex: 0
      m_TileColorIndex: 0
      m_ObjectToInstantiate: {fileID: 0}
      m_TileFlags: 1
      m_ColliderType: 2
  - first: {x: -1, y: 0, z: 0}
    second:
      m_TileIndex: 0
      m_TileSpriteIndex: 0
      m_TileMatrixIndex: 0
      m_TileColorIndex: 0
      m_ObjectToInstantiate: {fileID: 0}
      m_TileFlags: 1
      m_ColliderType: 2
  - first: {x: 0, y: 0, z: 0}
    second:
      m_TileIndex: 1
      m_TileSpriteIndex: 1
      m_TileMatrixIndex: 0
      m_TileColorIndex: 0
      m_ObjectToInstantiate: {fileID: 0}
      m_TileFlags: 1
      m_ColliderType: 2
  - first: {x: 1, y: 0, z: 0}
    second:
      m_TileIndex: 2
      m_TileSpriteIndex: 2
      m_TileMatrixIndex: 0
      m_TileColorIndex: 0
      m_ObjectToInstantiate: {fileID: 0}
      m_TileFlags: 1
      m_ColliderType: 2
  - first: {x: 2, y: 0, z: 0}
    second:
      m_TileIndex: 3
      m_TileSpriteIndex: 3
      m_TileMatrixIndex: 0
      m_TileColorIndex: 0
      m_ObjectToInstantiate: {fileID: 0}
      m_TileFlags: 1
      m_ColliderType: 2
  - first: {x: 3, y: 0, z: 0}
    second:
      m_TileIndex: 4
      m_TileSpriteIndex: 4
      m_TileMatrixIndex: 0
      m_TileColorIndex: 0
      m_ObjectToInstantiate: {fileID: 0}
      m_TileFlags: 1
      m_ColliderType: 2
  - first: {x: 4, y: 0, z: 0}
    second:
      m_TileIndex: 5
      m_TileSpriteIndex: 5
      m_TileMatrixIndex: 0
      m_TileColorIndex: 0
      m_ObjectToInstantiate: {fileID: 0}
      m_TileFlags: 1
      m_ColliderType: 2
  - first: {x: 5, y: 0, z: 0}
    second:
      m_TileIndex: 6
      m_TileSpriteIndex: 6
      m_TileMatrixIndex: 0
      m_TileColorIndex: 0
      m_ObjectToInstantiate: {fileID: 0}
      m_TileFlags: 1
      m_ColliderType: 2
  - first: {x: 6, y: 0, z: 0}
    second:
      m_TileIndex: 7
      m_TileSpriteIndex: 7
      m_TileMatrixIndex: 0
      m_TileColorIndex: 0
      m_ObjectToInstantiate: {fileID: 0}
      m_TileFlags: 1
      m_ColliderType: 2
  - first: {x: 7, y: 0, z: 0}
    second:
      m_TileIndex: 8
      m_TileSpriteIndex: 8
      m_TileMatrixIndex: 0
      m_TileColorIndex: 0
      m_ObjectToInstantiate: {fileID: 0}
      m_TileFlags: 1
      m_ColliderType: 2
  - first: {x: 8, y: 0, z: 0}
    second:
      m_TileIndex: 9
      m_TileSpriteIndex: 9
      m_TileMatrixIndex: 0
      m_TileColorIndex: 0
      m_ObjectToInstantiate: {fileID: 0}
      m_TileFlags: 1
      m_ColliderType: 2
  - first: {x: 9, y: 0, z: 0}
    second:
      m_TileIndex: 10
      m_TileSpriteIndex: 10
      m_TileMatrixIndex: 0
      m_TileColorIndex: 0
      m_ObjectToInstantiate: {fileID: 0}
      m_TileFlags: 1
      m_ColliderType: 2
  m_AnimatedTiles: {}
  m_TileAssetArray:
  - m_RefCount: 1
    m_Data: {fileID: 11400000, guid: 2e271f531d4c39e478872a200946cb52, type: 2}
  - m_RefCount: 1
    m_Data: {fileID: 11400000, guid: 0a5c29936c240304d83fc36edcd9a0dc, type: 2}
  - m_RefCount: 1
    m_Data: {fileID: 11400000, guid: 57260e51ea2f3634e9e9bebe774cbeb6, type: 2}
  - m_RefCount: 1
    m_Data: {fileID: 11400000, guid: 7c98c24510591604f9e0f5fee146e833, type: 2}
  - m_RefCount: 1
    m_Data: {fileID: 11400000, guid: ed40a6953fbc08b49979ed5c68a73fc9, type: 2}
  - m_RefCount: 1
    m_Data: {fileID: 11400000, guid: f060065f7be60e14bb6edd7d7f01e60c, type: 2}
  - m_RefCount: 1
    m_Data: {fileID: 11400000, guid: 80965496b8445614a8949264619c471c, type: 2}
  - m_RefCount: 1
    m_Data: {fileID: 11400000, guid: b9489f28ff3d4214b846d719eae2147d, type: 2}
  - m_RefCount: 1
    m_Data: {fileID: 11400000, guid: 48e6c53a405a60649b1872f252eb2fcf, type: 2}
  - m_RefCount: 1
    m_Data: {fileID: 11400000, guid: a5291a497b882e840ae2514dfc13ad36, type: 2}
  - m_RefCount: 1
    m_Data: {fileID: 11400000, guid: 8e69ac58bc4826c4fa3420309040544c, type: 2}
  - m_RefCount: 1
    m_Data: {fileID: 11400000, guid: ccc1fdbcb748b41478156428ec6dc2a1, type: 2}
  - m_RefCount: 1
    m_Data: {fileID: 11400000, guid: 39fdc04c878ff4340b889101947fa28d, type: 2}
  - m_RefCount: 1
    m_Data: {fileID: 11400000, guid: 053ee5d94f54e5b43be3b63504ec4dad, type: 2}
  - m_RefCount: 1
    m_Data: {fileID: 11400000, guid: f91e1fe414802814c83be32a62aca9ff, type: 2}
  - m_RefCount: 1
    m_Data: {fileID: 11400000, guid: 0391e7398f2b3f14b87d0b8e01c1695e, type: 2}
  - m_RefCount: 1
    m_Data: {fileID: 11400000, guid: 49e8f2422e42fff41ae61714d097d94a, type: 2}
  - m_RefCount: 1
    m_Data: {fileID: 11400000, guid: 07a1ee1dcd4716f478d0265803fa3b7a, type: 2}
  - m_RefCount: 1
    m_Data: {fileID: 11400000, guid: cb075e60b4a79e449a3ead0b29c95021, type: 2}
  - m_RefCount: 1
    m_Data: {fileID: 11400000, guid: d8531af150e36e54c8856eefd48095b5, type: 2}
  - m_RefCount: 1
    m_Data: {fileID: 11400000, guid: fdf5665902ddf7d4bae336224226d605, type: 2}
  - m_RefCount: 1
    m_Data: {fileID: 11400000, guid: 8a14f008dd728044db6670b077f3684e, type: 2}
  - m_RefCount: 1
    m_Data: {fileID: 11400000, guid: 040189957c39a9747b62707a8e7a3a7e, type: 2}
  - m_RefCount: 1
    m_Data: {fileID: 11400000, guid: ee599b6345c83ac4e85e78dacec716a2, type: 2}
  - m_RefCount: 1
    m_Data: {fileID: 11400000, guid: 6226b7d5f8b9bba4b8fc3f4f7fef6e8e, type: 2}
  - m_RefCount: 1
    m_Data: {fileID: 11400000, guid: 29faed8b358ff424b83c96fe6196ec75, type: 2}
  - m_RefCount: 1
    m_Data: {fileID: 11400000, guid: af1bc1708056cec4c984ab6d4efaafb3, type: 2}
  - m_RefCount: 1
    m_Data: {fileID: 11400000, guid: fa2976bf9f7ba86438319b62c351fc42, type: 2}
  - m_RefCount: 1
    m_Data: {fileID: 11400000, guid: 5c4f39379c5d48449bd0e2a16ce2e18b, type: 2}
  - m_RefCount: 1
    m_Data: {fileID: 11400000, guid: 2d8eaea50c224c34c8d0670bd40543b3, type: 2}
  - m_RefCount: 1
    m_Data: {fileID: 11400000, guid: ab4a4bb128d8f2d49a3accf2208eb951, type: 2}
  - m_RefCount: 1
    m_Data: {fileID: 11400000, guid: c45667b0086905841bcc7feb98918b78, type: 2}
  - m_RefCount: 1
    m_Data: {fileID: 11400000, guid: e03918cda8f9fb941ae1f40f4b7c4f4d, type: 2}
  - m_RefCount: 1
    m_Data: {fileID: 11400000, guid: dbf7b8de30a00364e934e38a94b02d11, type: 2}
  - m_RefCount: 1
    m_Data: {fileID: 11400000, guid: 3a1f7eab32983fd40a22cd5b701fcf4f, type: 2}
  - m_RefCount: 1
    m_Data: {fileID: 11400000, guid: 446e48d71ebc4fd4e9296b7f2f1a1d34, type: 2}
  - m_RefCount: 1
    m_Data: {fileID: 11400000, guid: d607f2682d292ab4aa6f232337d52419, type: 2}
  - m_RefCount: 1
    m_Data: {fileID: 11400000, guid: 4eefb30c0ed1ecb4ea3f2599251d7266, type: 2}
  - m_RefCount: 1
    m_Data: {fileID: 11400000, guid: fffd78dcce08d104485a61a339f5e3d5, type: 2}
  - m_RefCount: 1
    m_Data: {fileID: 11400000, guid: 41f94991f99657149ad1138f01fe06e1, type: 2}
  - m_RefCount: 1
    m_Data: {fileID: 11400000, guid: 873c8b382c7f5cb4c866bca2e2d42a37, type: 2}
  - m_RefCount: 1
    m_Data: {fileID: 11400000, guid: 6d93978af22b9a543acf4ab089eb7c7a, type: 2}
  - m_RefCount: 1
    m_Data: {fileID: 11400000, guid: 6a48c29c256c6064e87f3088019394fe, type: 2}
  - m_RefCount: 1
    m_Data: {fileID: 11400000, guid: c2956dea80c28de4189ee0698ba11fb4, type: 2}
  - m_RefCount: 1
    m_Data: {fileID: 11400000, guid: 7accabe320a089946a6e6d896b67ab86, type: 2}
  - m_RefCount: 1
    m_Data: {fileID: 11400000, guid: 8332e0c0332bb4142bf58d7d4b9a5114, type: 2}
  - m_RefCount: 1
    m_Data: {fileID: 11400000, guid: 33e0d32cf70966247bbd4989d960ac1a, type: 2}
  - m_RefCount: 1
    m_Data: {fileID: 11400000, guid: 590c7334a8014654a950623ea83626db, type: 2}
  - m_RefCount: 1
    m_Data: {fileID: 11400000, guid: b7a0d18f723d48845b87b642c483aaa1, type: 2}
  - m_RefCount: 1
    m_Data: {fileID: 11400000, guid: 575ad2786cbf1d94bb2e406f974c19ab, type: 2}
  - m_RefCount: 1
    m_Data: {fileID: 11400000, guid: bb8699088b4a15048bd5dac43ce3ff74, type: 2}
  - m_RefCount: 1
    m_Data: {fileID: 11400000, guid: 32d8d44d3b86c72479aa08eff81c74bd, type: 2}
  - m_RefCount: 1
    m_Data: {fileID: 11400000, guid: 8cfbddd0a92a73946b53dcdb08584e30, type: 2}
  - m_RefCount: 1
    m_Data: {fileID: 11400000, guid: 066ef6f63083f6648aeb3755abeaf9d3, type: 2}
  - m_RefCount: 1
    m_Data: {fileID: 11400000, guid: 771e2255d0bab2646ada81c4eb0f008c, type: 2}
  - m_RefCount: 1
    m_Data: {fileID: 11400000, guid: 26f38b748a27e874e9c0d9d96266911e, type: 2}
  - m_RefCount: 1
    m_Data: {fileID: 11400000, guid: 3c8507f98b8d51b40aa0a230054c2f07, type: 2}
  - m_RefCount: 1
    m_Data: {fileID: 11400000, guid: 82e6b924df3707f40bc9c0051c34458c, type: 2}
  - m_RefCount: 1
    m_Data: {fileID: 11400000, guid: 42f28606caeeddc4aaf83d5ff5577247, type: 2}
  - m_RefCount: 1
    m_Data: {fileID: 11400000, guid: 67fdc3bf1e8b56247acab31cbc69e457, type: 2}
  - m_RefCount: 1
    m_Data: {fileID: 11400000, guid: bf193f113ef60c643843ae98ff754a52, type: 2}
  - m_RefCount: 1
    m_Data: {fileID: 11400000, guid: 8f5a9858cc8f7374da0920f27fc64d7d, type: 2}
  - m_RefCount: 1
    m_Data: {fileID: 11400000, guid: f139f5c9bc7fe70409e76630a7beea7a, type: 2}
  - m_RefCount: 1
    m_Data: {fileID: 11400000, guid: e4b94d9f583e42145a3960cb24b43f25, type: 2}
  - m_RefCount: 1
    m_Data: {fileID: 11400000, guid: b3f7e90e41a96f84e956d781fbc21834, type: 2}
  - m_RefCount: 1
    m_Data: {fileID: 11400000, guid: ed2bb9f65380a7a488330c1b7691be08, type: 2}
  - m_RefCount: 1
    m_Data: {fileID: 11400000, guid: 24db5707d0bc3344fa09de00708c42cd, type: 2}
  - m_RefCount: 1
    m_Data: {fileID: 11400000, guid: d73cd978bdbbcd443b2ab71083edacb9, type: 2}
  - m_RefCount: 1
    m_Data: {fileID: 11400000, guid: e5cf877b9a9d3c1419736ed4e8f0d4bc, type: 2}
  - m_RefCount: 1
    m_Data: {fileID: 11400000, guid: 9164b84d0c6734a4e87061bf1eb1aba4, type: 2}
  - m_RefCount: 1
    m_Data: {fileID: 11400000, guid: a6bad20c32a44d34aa9b96de564c7dee, type: 2}
  - m_RefCount: 1
    m_Data: {fileID: 11400000, guid: 09f045666cf00fe46a48493aeab532eb, type: 2}
  - m_RefCount: 1
    m_Data: {fileID: 11400000, guid: fb8b607e80edf0b49aa99e32d4c1f869, type: 2}
  - m_RefCount: 1
    m_Data: {fileID: 11400000, guid: 1888050986590994fa85d4d741457f55, type: 2}
  - m_RefCount: 1
    m_Data: {fileID: 11400000, guid: d01683ac9f5be774ba1a362573744375, type: 2}
  - m_RefCount: 1
    m_Data: {fileID: 11400000, guid: 057db10fc3e7e8b41841f2c60622170a, type: 2}
  - m_RefCount: 1
    m_Data: {fileID: 11400000, guid: cf613de4052576f4f936c7b012b2dcc1, type: 2}
  - m_RefCount: 1
    m_Data: {fileID: 11400000, guid: b0ef9263fd544fa44abdae82266d820e, type: 2}
  - m_RefCount: 1
    m_Data: {fileID: 11400000, guid: 3200daad356c4904280c9f2e73fa4c39, type: 2}
  - m_RefCount: 1
    m_Data: {fileID: 11400000, guid: 815428a82a5eed54b9087f178475b2d8, type: 2}
  - m_RefCount: 1
    m_Data: {fileID: 11400000, guid: 081cf928033abbc4786c258f00198ee5, type: 2}
  - m_RefCount: 1
    m_Data: {fileID: 11400000, guid: 4d15768356aeec34d95c41596b7c9966, type: 2}
  - m_RefCount: 1
    m_Data: {fileID: 11400000, guid: bf82a5f3cbdf4ba4c9d06297bd3011f4, type: 2}
  - m_RefCount: 1
    m_Data: {fileID: 11400000, guid: ab442be832a5d034db3c0e5a1d3c396b, type: 2}
  - m_RefCount: 1
    m_Data: {fileID: 11400000, guid: 9ca4cc2d1e607ef4ca0f7b1c63627904, type: 2}
  - m_RefCount: 1
    m_Data: {fileID: 11400000, guid: 0d30f4e5b92a50046abae14d6af5908c, type: 2}
  - m_RefCount: 1
    m_Data: {fileID: 11400000, guid: f96ed4ec33ca4e54a9db12c898f63e9e, type: 2}
  - m_RefCount: 1
    m_Data: {fileID: 11400000, guid: 5460feda079bda04f98e069084619dad, type: 2}
  - m_RefCount: 1
    m_Data: {fileID: 11400000, guid: 767167078c0aee6488bd805c31c9ade7, type: 2}
  - m_RefCount: 1
    m_Data: {fileID: 11400000, guid: 3b3ad0cbbcb942d45a559e9ad8f3d7e2, type: 2}
  - m_RefCount: 1
    m_Data: {fileID: 11400000, guid: ef3f8a91c4468144e9723c5e553d059b, type: 2}
  - m_RefCount: 1
    m_Data: {fileID: 11400000, guid: 4564fcc5b1f1e3c4cbe748473e1ea3e5, type: 2}
  - m_RefCount: 1
    m_Data: {fileID: 11400000, guid: 907753520c874dd42954f81d65c29f99, type: 2}
  - m_RefCount: 1
    m_Data: {fileID: 11400000, guid: b8970c2c0cbde4343b7f28adf69ff19e, type: 2}
  - m_RefCount: 1
    m_Data: {fileID: 11400000, guid: 114b386ec7a03cc4a9d995f699b0d0dd, type: 2}
  - m_RefCount: 1
    m_Data: {fileID: 11400000, guid: 84d6058a0663b9949af8bfc779e7fa63, type: 2}
  - m_RefCount: 1
    m_Data: {fileID: 11400000, guid: 8cf418537a7dc364fbfa603f34f52572, type: 2}
  - m_RefCount: 1
    m_Data: {fileID: 11400000, guid: 8119a075df293c740847ee22db8d8883, type: 2}
  - m_RefCount: 1
    m_Data: {fileID: 11400000, guid: 7c0089f2da4079f4995f80d82c9c0846, type: 2}
  - m_RefCount: 1
    m_Data: {fileID: 11400000, guid: 8b34ad445d8a499408ed9de623c072b3, type: 2}
  - m_RefCount: 1
    m_Data: {fileID: 11400000, guid: 5761b7b928baea141bee5cbd0cefd3bc, type: 2}
  - m_RefCount: 1
    m_Data: {fileID: 11400000, guid: a833053d18ea8b948a985e28a7c6f74a, type: 2}
  - m_RefCount: 1
    m_Data: {fileID: 11400000, guid: 94141336104d76c4ea03f9e575e9abdf, type: 2}
  - m_RefCount: 1
    m_Data: {fileID: 11400000, guid: 03a4081672b00e04891679d7f9755f3d, type: 2}
  - m_RefCount: 1
    m_Data: {fileID: 11400000, guid: 75aad8724702dbc44ab72549f14456a7, type: 2}
  - m_RefCount: 1
    m_Data: {fileID: 11400000, guid: ad28ab365e50d66468279fc91ff1d30b, type: 2}
  - m_RefCount: 1
    m_Data: {fileID: 11400000, guid: 421545984c2a2df4bae673ec756c3b61, type: 2}
  - m_RefCount: 1
    m_Data: {fileID: 11400000, guid: dc28dd48141fdf54f97afdc520e5bdeb, type: 2}
  - m_RefCount: 1
    m_Data: {fileID: 11400000, guid: 422985b9cdad26741a74bc9265df371b, type: 2}
  - m_RefCount: 1
    m_Data: {fileID: 11400000, guid: 02aab5401370a884d9196e506c3ca146, type: 2}
  - m_RefCount: 1
    m_Data: {fileID: 11400000, guid: 4a86e42d45e89714d87340288c5a1c23, type: 2}
  - m_RefCount: 1
    m_Data: {fileID: 11400000, guid: 7e753909099ce3546973136b8c49f376, type: 2}
  - m_RefCount: 1
    m_Data: {fileID: 11400000, guid: d4cb3b17bb4cc1f4981272acca01c624, type: 2}
  - m_RefCount: 1
    m_Data: {fileID: 0}
  - m_RefCount: 1
    m_Data: {fileID: 11400000, guid: b89ccb5e7977aa745bbf38ee68a20ea9, type: 2}
  m_TileSpriteArray:
  - m_RefCount: 1
    m_Data: {fileID: 21300000, guid: e11fe25b262458945bbbe072f430bb36, type: 3}
  - m_RefCount: 1
    m_Data: {fileID: 21300002, guid: e11fe25b262458945bbbe072f430bb36, type: 3}
  - m_RefCount: 1
    m_Data: {fileID: 21300004, guid: e11fe25b262458945bbbe072f430bb36, type: 3}
  - m_RefCount: 1
    m_Data: {fileID: 21300006, guid: e11fe25b262458945bbbe072f430bb36, type: 3}
  - m_RefCount: 1
    m_Data: {fileID: 21300008, guid: e11fe25b262458945bbbe072f430bb36, type: 3}
  - m_RefCount: 1
    m_Data: {fileID: 21300010, guid: e11fe25b262458945bbbe072f430bb36, type: 3}
  - m_RefCount: 1
    m_Data: {fileID: 21300012, guid: e11fe25b262458945bbbe072f430bb36, type: 3}
  - m_RefCount: 1
    m_Data: {fileID: 21300014, guid: e11fe25b262458945bbbe072f430bb36, type: 3}
  - m_RefCount: 1
    m_Data: {fileID: 21300016, guid: e11fe25b262458945bbbe072f430bb36, type: 3}
  - m_RefCount: 1
    m_Data: {fileID: 21300018, guid: e11fe25b262458945bbbe072f430bb36, type: 3}
  - m_RefCount: 1
    m_Data: {fileID: 21300020, guid: e11fe25b262458945bbbe072f430bb36, type: 3}
  - m_RefCount: 1
    m_Data: {fileID: 21300022, guid: e11fe25b262458945bbbe072f430bb36, type: 3}
  - m_RefCount: 1
    m_Data: {fileID: 21300024, guid: e11fe25b262458945bbbe072f430bb36, type: 3}
  - m_RefCount: 1
    m_Data: {fileID: 21300026, guid: e11fe25b262458945bbbe072f430bb36, type: 3}
  - m_RefCount: 1
    m_Data: {fileID: 21300028, guid: e11fe25b262458945bbbe072f430bb36, type: 3}
  - m_RefCount: 1
    m_Data: {fileID: 21300030, guid: e11fe25b262458945bbbe072f430bb36, type: 3}
  - m_RefCount: 1
    m_Data: {fileID: 21300032, guid: e11fe25b262458945bbbe072f430bb36, type: 3}
  - m_RefCount: 1
    m_Data: {fileID: 21300034, guid: e11fe25b262458945bbbe072f430bb36, type: 3}
  - m_RefCount: 1
    m_Data: {fileID: 21300036, guid: e11fe25b262458945bbbe072f430bb36, type: 3}
  - m_RefCount: 1
    m_Data: {fileID: 21300038, guid: e11fe25b262458945bbbe072f430bb36, type: 3}
  - m_RefCount: 1
    m_Data: {fileID: 21300040, guid: e11fe25b262458945bbbe072f430bb36, type: 3}
  - m_RefCount: 1
    m_Data: {fileID: 21300042, guid: e11fe25b262458945bbbe072f430bb36, type: 3}
  - m_RefCount: 1
    m_Data: {fileID: 21300044, guid: e11fe25b262458945bbbe072f430bb36, type: 3}
  - m_RefCount: 1
    m_Data: {fileID: 21300046, guid: e11fe25b262458945bbbe072f430bb36, type: 3}
  - m_RefCount: 1
    m_Data: {fileID: 21300048, guid: e11fe25b262458945bbbe072f430bb36, type: 3}
  - m_RefCount: 1
    m_Data: {fileID: 21300050, guid: e11fe25b262458945bbbe072f430bb36, type: 3}
  - m_RefCount: 1
    m_Data: {fileID: 21300052, guid: e11fe25b262458945bbbe072f430bb36, type: 3}
  - m_RefCount: 1
    m_Data: {fileID: 21300054, guid: e11fe25b262458945bbbe072f430bb36, type: 3}
  - m_RefCount: 1
    m_Data: {fileID: 21300056, guid: e11fe25b262458945bbbe072f430bb36, type: 3}
  - m_RefCount: 1
    m_Data: {fileID: 21300058, guid: e11fe25b262458945bbbe072f430bb36, type: 3}
  - m_RefCount: 1
    m_Data: {fileID: 21300060, guid: e11fe25b262458945bbbe072f430bb36, type: 3}
  - m_RefCount: 1
    m_Data: {fileID: 21300062, guid: e11fe25b262458945bbbe072f430bb36, type: 3}
  - m_RefCount: 1
    m_Data: {fileID: 21300064, guid: e11fe25b262458945bbbe072f430bb36, type: 3}
  - m_RefCount: 1
    m_Data: {fileID: 21300066, guid: e11fe25b262458945bbbe072f430bb36, type: 3}
  - m_RefCount: 1
    m_Data: {fileID: 21300068, guid: e11fe25b262458945bbbe072f430bb36, type: 3}
  - m_RefCount: 1
    m_Data: {fileID: 21300070, guid: e11fe25b262458945bbbe072f430bb36, type: 3}
  - m_RefCount: 1
    m_Data: {fileID: 21300072, guid: e11fe25b262458945bbbe072f430bb36, type: 3}
  - m_RefCount: 1
    m_Data: {fileID: 21300074, guid: e11fe25b262458945bbbe072f430bb36, type: 3}
  - m_RefCount: 1
    m_Data: {fileID: 21300076, guid: e11fe25b262458945bbbe072f430bb36, type: 3}
  - m_RefCount: 1
    m_Data: {fileID: 21300078, guid: e11fe25b262458945bbbe072f430bb36, type: 3}
  - m_RefCount: 1
    m_Data: {fileID: 21300080, guid: e11fe25b262458945bbbe072f430bb36, type: 3}
  - m_RefCount: 1
    m_Data: {fileID: 21300082, guid: e11fe25b262458945bbbe072f430bb36, type: 3}
  - m_RefCount: 1
    m_Data: {fileID: 21300084, guid: e11fe25b262458945bbbe072f430bb36, type: 3}
  - m_RefCount: 1
    m_Data: {fileID: 21300086, guid: e11fe25b262458945bbbe072f430bb36, type: 3}
  - m_RefCount: 1
    m_Data: {fileID: 21300088, guid: e11fe25b262458945bbbe072f430bb36, type: 3}
  - m_RefCount: 1
    m_Data: {fileID: 21300090, guid: e11fe25b262458945bbbe072f430bb36, type: 3}
  - m_RefCount: 1
    m_Data: {fileID: 21300092, guid: e11fe25b262458945bbbe072f430bb36, type: 3}
  - m_RefCount: 1
    m_Data: {fileID: 21300094, guid: e11fe25b262458945bbbe072f430bb36, type: 3}
  - m_RefCount: 1
    m_Data: {fileID: 21300096, guid: e11fe25b262458945bbbe072f430bb36, type: 3}
  - m_RefCount: 1
    m_Data: {fileID: 21300098, guid: e11fe25b262458945bbbe072f430bb36, type: 3}
  - m_RefCount: 1
    m_Data: {fileID: 21300100, guid: e11fe25b262458945bbbe072f430bb36, type: 3}
  - m_RefCount: 1
    m_Data: {fileID: 21300102, guid: e11fe25b262458945bbbe072f430bb36, type: 3}
  - m_RefCount: 1
    m_Data: {fileID: 21300104, guid: e11fe25b262458945bbbe072f430bb36, type: 3}
  - m_RefCount: 1
    m_Data: {fileID: 21300106, guid: e11fe25b262458945bbbe072f430bb36, type: 3}
  - m_RefCount: 1
    m_Data: {fileID: 21300108, guid: e11fe25b262458945bbbe072f430bb36, type: 3}
  - m_RefCount: 1
    m_Data: {fileID: 21300110, guid: e11fe25b262458945bbbe072f430bb36, type: 3}
  - m_RefCount: 1
    m_Data: {fileID: 21300112, guid: e11fe25b262458945bbbe072f430bb36, type: 3}
  - m_RefCount: 1
    m_Data: {fileID: 21300114, guid: e11fe25b262458945bbbe072f430bb36, type: 3}
  - m_RefCount: 1
    m_Data: {fileID: 21300116, guid: e11fe25b262458945bbbe072f430bb36, type: 3}
  - m_RefCount: 1
    m_Data: {fileID: 21300118, guid: e11fe25b262458945bbbe072f430bb36, type: 3}
  - m_RefCount: 1
    m_Data: {fileID: 21300120, guid: e11fe25b262458945bbbe072f430bb36, type: 3}
  - m_RefCount: 1
    m_Data: {fileID: 21300122, guid: e11fe25b262458945bbbe072f430bb36, type: 3}
  - m_RefCount: 1
    m_Data: {fileID: 21300124, guid: e11fe25b262458945bbbe072f430bb36, type: 3}
  - m_RefCount: 1
    m_Data: {fileID: 21300126, guid: e11fe25b262458945bbbe072f430bb36, type: 3}
  - m_RefCount: 1
    m_Data: {fileID: 21300128, guid: e11fe25b262458945bbbe072f430bb36, type: 3}
  - m_RefCount: 1
    m_Data: {fileID: 21300130, guid: e11fe25b262458945bbbe072f430bb36, type: 3}
  - m_RefCount: 1
    m_Data: {fileID: 21300132, guid: e11fe25b262458945bbbe072f430bb36, type: 3}
  - m_RefCount: 1
    m_Data: {fileID: 21300134, guid: e11fe25b262458945bbbe072f430bb36, type: 3}
  - m_RefCount: 1
    m_Data: {fileID: 21300136, guid: e11fe25b262458945bbbe072f430bb36, type: 3}
  - m_RefCount: 1
    m_Data: {fileID: 21300138, guid: e11fe25b262458945bbbe072f430bb36, type: 3}
  - m_RefCount: 1
    m_Data: {fileID: 21300140, guid: e11fe25b262458945bbbe072f430bb36, type: 3}
  - m_RefCount: 1
    m_Data: {fileID: 21300142, guid: e11fe25b262458945bbbe072f430bb36, type: 3}
  - m_RefCount: 1
    m_Data: {fileID: 21300144, guid: e11fe25b262458945bbbe072f430bb36, type: 3}
  - m_RefCount: 1
    m_Data: {fileID: 21300146, guid: e11fe25b262458945bbbe072f430bb36, type: 3}
  - m_RefCount: 1
    m_Data: {fileID: 21300148, guid: e11fe25b262458945bbbe072f430bb36, type: 3}
  - m_RefCount: 1
    m_Data: {fileID: 21300150, guid: e11fe25b262458945bbbe072f430bb36, type: 3}
  - m_RefCount: 2
    m_Data: {fileID: 21300152, guid: e11fe25b262458945bbbe072f430bb36, type: 3}
  - m_RefCount: 1
    m_Data: {fileID: 21300154, guid: e11fe25b262458945bbbe072f430bb36, type: 3}
  - m_RefCount: 1
    m_Data: {fileID: 21300156, guid: e11fe25b262458945bbbe072f430bb36, type: 3}
  - m_RefCount: 1
    m_Data: {fileID: 21300158, guid: e11fe25b262458945bbbe072f430bb36, type: 3}
  - m_RefCount: 1
    m_Data: {fileID: 21300160, guid: e11fe25b262458945bbbe072f430bb36, type: 3}
  - m_RefCount: 1
    m_Data: {fileID: 21300162, guid: e11fe25b262458945bbbe072f430bb36, type: 3}
  - m_RefCount: 1
    m_Data: {fileID: 21300164, guid: e11fe25b262458945bbbe072f430bb36, type: 3}
  - m_RefCount: 1
    m_Data: {fileID: 21300166, guid: e11fe25b262458945bbbe072f430bb36, type: 3}
  - m_RefCount: 1
    m_Data: {fileID: 21300168, guid: e11fe25b262458945bbbe072f430bb36, type: 3}
  - m_RefCount: 1
    m_Data: {fileID: 21300170, guid: e11fe25b262458945bbbe072f430bb36, type: 3}
  - m_RefCount: 1
    m_Data: {fileID: 21300172, guid: e11fe25b262458945bbbe072f430bb36, type: 3}
  - m_RefCount: 1
    m_Data: {fileID: 21300174, guid: e11fe25b262458945bbbe072f430bb36, type: 3}
  - m_RefCount: 1
    m_Data: {fileID: 21300176, guid: e11fe25b262458945bbbe072f430bb36, type: 3}
  - m_RefCount: 1
    m_Data: {fileID: 21300178, guid: e11fe25b262458945bbbe072f430bb36, type: 3}
  - m_RefCount: 1
    m_Data: {fileID: 21300180, guid: e11fe25b262458945bbbe072f430bb36, type: 3}
  - m_RefCount: 1
    m_Data: {fileID: 21300182, guid: e11fe25b262458945bbbe072f430bb36, type: 3}
  - m_RefCount: 1
    m_Data: {fileID: 21300184, guid: e11fe25b262458945bbbe072f430bb36, type: 3}
  - m_RefCount: 1
    m_Data: {fileID: 21300186, guid: e11fe25b262458945bbbe072f430bb36, type: 3}
  - m_RefCount: 1
    m_Data: {fileID: 21300188, guid: e11fe25b262458945bbbe072f430bb36, type: 3}
  - m_RefCount: 1
    m_Data: {fileID: 21300190, guid: e11fe25b262458945bbbe072f430bb36, type: 3}
  - m_RefCount: 1
    m_Data: {fileID: 21300192, guid: e11fe25b262458945bbbe072f430bb36, type: 3}
  - m_RefCount: 1
    m_Data: {fileID: 21300194, guid: e11fe25b262458945bbbe072f430bb36, type: 3}
  - m_RefCount: 1
    m_Data: {fileID: 21300196, guid: e11fe25b262458945bbbe072f430bb36, type: 3}
  - m_RefCount: 1
    m_Data: {fileID: 21300198, guid: e11fe25b262458945bbbe072f430bb36, type: 3}
  - m_RefCount: 1
    m_Data: {fileID: 21300200, guid: e11fe25b262458945bbbe072f430bb36, type: 3}
  - m_RefCount: 1
    m_Data: {fileID: 21300202, guid: e11fe25b262458945bbbe072f430bb36, type: 3}
  - m_RefCount: 1
    m_Data: {fileID: 21300204, guid: e11fe25b262458945bbbe072f430bb36, type: 3}
  - m_RefCount: 1
    m_Data: {fileID: 21300206, guid: e11fe25b262458945bbbe072f430bb36, type: 3}
  - m_RefCount: 1
    m_Data: {fileID: 21300208, guid: e11fe25b262458945bbbe072f430bb36, type: 3}
  - m_RefCount: 1
    m_Data: {fileID: 21300210, guid: e11fe25b262458945bbbe072f430bb36, type: 3}
  - m_RefCount: 1
    m_Data: {fileID: 21300212, guid: e11fe25b262458945bbbe072f430bb36, type: 3}
  - m_RefCount: 1
    m_Data: {fileID: 21300214, guid: e11fe25b262458945bbbe072f430bb36, type: 3}
  - m_RefCount: 1
    m_Data: {fileID: 21300216, guid: e11fe25b262458945bbbe072f430bb36, type: 3}
  - m_RefCount: 1
    m_Data: {fileID: 21300218, guid: e11fe25b262458945bbbe072f430bb36, type: 3}
  - m_RefCount: 1
    m_Data: {fileID: 21300220, guid: e11fe25b262458945bbbe072f430bb36, type: 3}
  - m_RefCount: 1
    m_Data: {fileID: 21300222, guid: e11fe25b262458945bbbe072f430bb36, type: 3}
  - m_RefCount: 1
    m_Data: {fileID: 21300224, guid: e11fe25b262458945bbbe072f430bb36, type: 3}
  - m_RefCount: 1
    m_Data: {fileID: 0}
  m_TileMatrixArray:
  - m_RefCount: 115
    m_Data:
      e00: 1
      e01: 0
      e02: 0
      e03: 0
      e10: 0
      e11: 1
      e12: 0
      e13: 0
      e20: 0
      e21: 0
      e22: 1
      e23: 0
      e30: 0
      e31: 0
      e32: 0
      e33: 1
  m_TileColorArray:
  - m_RefCount: 114
    m_Data: {r: 1, g: 1, b: 1, a: 1}
  - m_RefCount: 1
    m_Data: {r: 0.73463404, g: 0.4981803, b: 0.5314482, a: 1}
  m_AnimationFrameRate: 1
  m_Color: {r: 1, g: 1, b: 1, a: 1}
  m_Origin: {x: -1, y: -10, z: 0}
  m_Size: {x: 23, y: 11, z: 1}
  m_TileAnchor: {x: 0.5, y: 0.5, z: 0}
  m_TileOrientation: 0
  m_TileOrientationMatrix:
    e00: 1
    e01: 0
    e02: 0
    e03: 0
    e10: 0
    e11: 1
    e12: 0
    e13: 0
    e20: 0
    e21: 0
    e22: 1
    e23: 0
    e30: 0
    e31: 0
    e32: 0
    e33: 1
  m_TileRefreshArray:
  - serializedVersion: 1
    m_DirtyIndex: 1
  - serializedVersion: 1
    m_DirtyIndex: 1
  - serializedVersion: 1
    m_DirtyIndex: 1
  - serializedVersion: 1
    m_DirtyIndex: 1
  - serializedVersion: 1
    m_DirtyIndex: 1
  - serializedVersion: 1
    m_DirtyIndex: 1
  - serializedVersion: 1
    m_DirtyIndex: 1
  - serializedVersion: 1
    m_DirtyIndex: 1
  - serializedVersion: 1
    m_DirtyIndex: 1
  - serializedVersion: 1
    m_DirtyIndex: 1
  - serializedVersion: 1
    m_DirtyIndex: 1
  - serializedVersion: 1
    m_DirtyIndex: 1
  - serializedVersion: 1
    m_DirtyIndex: 1
  - serializedVersion: 1
    m_DirtyIndex: 1
  - serializedVersion: 1
    m_DirtyIndex: 1
  - serializedVersion: 1
    m_DirtyIndex: 1
  - serializedVersion: 1
    m_DirtyIndex: 1
  - serializedVersion: 1
    m_DirtyIndex: 1
  - serializedVersion: 1
    m_DirtyIndex: 1
  - serializedVersion: 1
    m_DirtyIndex: 1
  - serializedVersion: 1
    m_DirtyIndex: 1
  - serializedVersion: 1
    m_DirtyIndex: 1
  - serializedVersion: 1
    m_DirtyIndex: 1
  - serializedVersion: 1
    m_DirtyIndex: 1
  - serializedVersion: 1
    m_DirtyIndex: 1
  - serializedVersion: 1
    m_DirtyIndex: 1
  - serializedVersion: 1
    m_DirtyIndex: 1
  - serializedVersion: 1
    m_DirtyIndex: 1
  - serializedVersion: 1
    m_DirtyIndex: 1
  - serializedVersion: 1
    m_DirtyIndex: 1
  - serializedVersion: 1
    m_DirtyIndex: 1
  - serializedVersion: 1
    m_DirtyIndex: 1
  - serializedVersion: 1
    m_DirtyIndex: 1
  - serializedVersion: 1
    m_DirtyIndex: 1
  - serializedVersion: 1
    m_DirtyIndex: 1
  - serializedVersion: 1
    m_DirtyIndex: 1
  - serializedVersion: 1
    m_DirtyIndex: 1
  - serializedVersion: 1
    m_DirtyIndex: 1
  - serializedVersion: 1
    m_DirtyIndex: 1
  - serializedVersion: 1
    m_DirtyIndex: 1
  - serializedVersion: 1
    m_DirtyIndex: 1
  - serializedVersion: 1
    m_DirtyIndex: 1
  - serializedVersion: 1
    m_DirtyIndex: 1
  - serializedVersion: 1
    m_DirtyIndex: 1
  - serializedVersion: 1
    m_DirtyIndex: 1
  - serializedVersion: 1
    m_DirtyIndex: 1
  - serializedVersion: 1
    m_DirtyIndex: 1
  - serializedVersion: 1
    m_DirtyIndex: 1
  - serializedVersion: 1
    m_DirtyIndex: 1
  - serializedVersion: 1
    m_DirtyIndex: 1
  - serializedVersion: 1
    m_DirtyIndex: 1
  - serializedVersion: 1
    m_DirtyIndex: 1
  - serializedVersion: 1
    m_DirtyIndex: 1
  - serializedVersion: 1
    m_DirtyIndex: 1
  - serializedVersion: 1
    m_DirtyIndex: 1
  - serializedVersion: 1
    m_DirtyIndex: 1
  - serializedVersion: 1
    m_DirtyIndex: 1
  - serializedVersion: 1
    m_DirtyIndex: 1
  - serializedVersion: 1
    m_DirtyIndex: 1
  - serializedVersion: 1
    m_DirtyIndex: 1
  - serializedVersion: 1
    m_DirtyIndex: 1
  - serializedVersion: 1
    m_DirtyIndex: 1
  - serializedVersion: 1
    m_DirtyIndex: 1
  - serializedVersion: 1
    m_DirtyIndex: 1
  - serializedVersion: 1
    m_DirtyIndex: 1
  - serializedVersion: 1
    m_DirtyIndex: 1
  - serializedVersion: 1
    m_DirtyIndex: 1
  - serializedVersion: 1
    m_DirtyIndex: 1
  - serializedVersion: 1
    m_DirtyIndex: 1
  - serializedVersion: 1
    m_DirtyIndex: 1
  - serializedVersion: 1
    m_DirtyIndex: 1
  - serializedVersion: 1
    m_DirtyIndex: 1
  - serializedVersion: 1
    m_DirtyIndex: 1
  - serializedVersion: 1
    m_DirtyIndex: 1
  - serializedVersion: 1
    m_DirtyIndex: 1
  - serializedVersion: 1
    m_DirtyIndex: 1
  - serializedVersion: 1
    m_DirtyIndex: 1
  - serializedVersion: 1
    m_DirtyIndex: 1
  - serializedVersion: 1
    m_DirtyIndex: 1
  - serializedVersion: 1
    m_DirtyIndex: 1
  - serializedVersion: 1
    m_DirtyIndex: 1
  - serializedVersion: 1
    m_DirtyIndex: 1
  - serializedVersion: 1
    m_DirtyIndex: 1
  - serializedVersion: 1
    m_DirtyIndex: 1
  - serializedVersion: 1
    m_DirtyIndex: 1
  - serializedVersion: 1
    m_DirtyIndex: 1
  - serializedVersion: 1
    m_DirtyIndex: 1
  - serializedVersion: 1
    m_DirtyIndex: 1
  - serializedVersion: 1
    m_DirtyIndex: 1
  - serializedVersion: 1
    m_DirtyIndex: 1
  - serializedVersion: 1
    m_DirtyIndex: 1
  - serializedVersion: 1
    m_DirtyIndex: 1
  - serializedVersion: 1
    m_DirtyIndex: 1
  - serializedVersion: 1
    m_DirtyIndex: 1
  - serializedVersion: 1
    m_DirtyIndex: 1
  - serializedVersion: 1
    m_DirtyIndex: 1
  - serializedVersion: 1
    m_DirtyIndex: 1
  - serializedVersion: 1
    m_DirtyIndex: 1
  - serializedVersion: 1
    m_DirtyIndex: 1
  - serializedVersion: 1
    m_DirtyIndex: 1
  - serializedVersion: 1
    m_DirtyIndex: 1
  - serializedVersion: 1
    m_DirtyIndex: 1
  - serializedVersion: 1
    m_DirtyIndex: 1
  - serializedVersion: 1
    m_DirtyIndex: 1
  - serializedVersion: 1
    m_DirtyIndex: 1
  - serializedVersion: 1
    m_DirtyIndex: 1
  - serializedVersion: 1
    m_DirtyIndex: 1
  - serializedVersion: 1
    m_DirtyIndex: 1
  - serializedVersion: 1
    m_DirtyIndex: 1
  - serializedVersion: 1
    m_DirtyIndex: 1
  - serializedVersion: 1
    m_DirtyIndex: 1
  - serializedVersion: 1
    m_DirtyIndex: 1
  - serializedVersion: 1
    m_DirtyIndex: 1
  - serializedVersion: 1
    m_DirtyIndex: 1
  - serializedVersion: 1
    m_DirtyIndex: 87
